REG/reg.vcd
$date
  Wed Dec  1 10:42:43 2021
$end
$version
  GHDL v0
$end
$timescale
  1 fs
$end
$var reg 32 ! wdata1[31:0] $end
$var reg 4 " wadr1[3:0] $end
$var reg 1 # wen1 $end
$var reg 32 $ wdata2[31:0] $end
$var reg 4 % wadr2[3:0] $end
$var reg 1 & wen2 $end
$var reg 1 ' wcry $end
$var reg 1 ( wzero $end
$var reg 1 ) wneg $end
$var reg 1 * wovr $end
$var reg 1 + cspr_wb $end
$var reg 32 , reg_rd1[31:0] $end
$var reg 4 - radr1[3:0] $end
$var reg 1 . reg_v1 $end
$var reg 32 / reg_rd2[31:0] $end
$var reg 4 0 radr2[3:0] $end
$var reg 1 1 reg_v2 $end
$var reg 32 2 reg_rd3[31:0] $end
$var reg 4 3 radr3[3:0] $end
$var reg 1 4 reg_v3 $end
$var reg 5 5 reg_rd4[4:0] $end
$var reg 4 6 radr4[3:0] $end
$var reg 1 7 reg_v4 $end
$var reg 1 8 reg_cry $end
$var reg 1 9 reg_zero $end
$var reg 1 : reg_neg $end
$var reg 1 ; reg_cznv $end
$var reg 1 < reg_ovr $end
$var reg 1 = reg_vv $end
$var reg 4 > inval_adr1[3:0] $end
$var reg 1 ? inval1 $end
$var reg 4 @ inval_adr2[3:0] $end
$var reg 1 A inval2 $end
$var reg 1 B inval_czn $end
$var reg 1 C inval_ovr $end
$var reg 32 D reg_pc[31:0] $end
$var reg 1 E reg_pcv $end
$var reg 1 F inc_pc $end
$var reg 1 G ck $end
$var reg 1 H reset_n $end
$var reg 1 I vdd $end
$var reg 1 J vss $end
$scope module reg_stage $end
$var reg 32 K wdata1[31:0] $end
$var reg 4 L wadr1[3:0] $end
$var reg 1 M wen1 $end
$var reg 32 N wdata2[31:0] $end
$var reg 4 O wadr2[3:0] $end
$var reg 1 P wen2 $end
$var reg 1 Q wcry $end
$var reg 1 R wzero $end
$var reg 1 S wneg $end
$var reg 1 T wovr $end
$var reg 1 U cspr_wb $end
$var reg 32 V reg_rd1[31:0] $end
$var reg 4 W radr1[3:0] $end
$var reg 1 X reg_v1 $end
$var reg 32 Y reg_rd2[31:0] $end
$var reg 4 Z radr2[3:0] $end
$var reg 1 [ reg_v2 $end
$var reg 32 \ reg_rd3[31:0] $end
$var reg 4 ] radr3[3:0] $end
$var reg 1 ^ reg_v3 $end
$var reg 5 _ reg_rd4[4:0] $end
$var reg 4 ` radr4[3:0] $end
$var reg 1 a reg_v4 $end
$var reg 1 b reg_cry $end
$var reg 1 c reg_zero $end
$var reg 1 d reg_neg $end
$var reg 1 e reg_cznv $end
$var reg 1 f reg_ovr $end
$var reg 1 g reg_vv $end
$var reg 4 h inval_adr1[3:0] $end
$var reg 1 i inval1 $end
$var reg 4 j inval_adr2[3:0] $end
$var reg 1 k inval2 $end
$var reg 1 l inval_czn $end
$var reg 1 m inval_ovr $end
$var reg 32 n reg_pc[31:0] $end
$var reg 1 o reg_pcv $end
$var reg 1 p inc_pc $end
$var reg 1 q ck $end
$var reg 1 r reset_n $end
$var reg 1 s vdd $end
$var reg 1 t vss $end
$var reg 1 u c $end
$var reg 1 v ovr $end
$var reg 1 w z $end
$var reg 1 x n $end
$var reg 1 y czn_valid $end
$var reg 1 z ovr_valid $end
$comment regs is not handled $end
$var reg 16 { bits_valid[15:0] $end
$upscope $end
$enddefinitions $end
#0
bUUUUUUUUUUUUUUUUUUUUUUUUUUUUUUUU !
bUUUU "
U#
bUUUUUUUUUUUUUUUUUUUUUUUUUUUUUUUU $
bUUUU %
U&
U'
U(
U)
U*
U+
bUUUUUUUUUUUUUUUUUUUUUUUUUUUUUUUU ,
bUUUU -
U.
bUUUUUUUUUUUUUUUUUUUUUUUUUUUUUUUU /
bUUUU 0
U1
bUUUUUUUUUUUUUUUUUUUUUUUUUUUUUUUU 2
bUUUU 3
U4
bUUUUU 5
bUUUU 6
U7
U8
U9
U:
U;
U<
U=
bUUUU >
U?
bUUUU @
UA
UB
UC
bUUUUUUUUUUUUUUUUUUUUUUUUUUUUUUUU D
UE
UF
1G
0H
0I
0J
bUUUUUUUUUUUUUUUUUUUUUUUUUUUUUUUU K
bUUUU L
UM
bUUUUUUUUUUUUUUUUUUUUUUUUUUUUUUUU N
bUUUU O
UP
UQ
UR
US
UT
UU
bUUUUUUUUUUUUUUUUUUUUUUUUUUUUUUUU V
bUUUU W
UX
bUUUUUUUUUUUUUUUUUUUUUUUUUUUUUUUU Y
bUUUU Z
U[
bUUUUUUUUUUUUUUUUUUUUUUUUUUUUUUUU \
bUUUU ]
U^
bUUUUU _
bUUUU `
Ua
Ub
Uc
Ud
Ue
Uf
Ug
bUUUU h
Ui
bUUUU j
Uk
Ul
Um
bUUUUUUUUUUUUUUUUUUUUUUUUUUUUUUUU n
Uo
Up
1q
0r
0s
0t
Uu
Uv
Uw
Ux
Uy
Uz
bUUUUUUUUUUUUUUUU {
#4000000
0G
1H
0q
1r
#8000000
b11111001011000101010000110010000 !
b0010 "
1#
b11110010111100011111110000100011 $
b1111 %
0&
0'
0(
1)
1*
0+
b11111001011000101010000110010000 ,
b0010 -
b1111 0
b1011 3
b1010 6
0=
b0111 >
b1011 @
1B
0C
1F
1G
b11111001011000101010000110010000 K
b0010 L
1M
b11110010111100011111110000100011 N
b1111 O
0P
0Q
0R
1S
1T
0U
b11111001011000101010000110010000 V
b0010 W
b1111 Z
b1011 ]
b1010 `
0g
b0111 h
b1011 j
1l
0m
1p
1q
0z
#12000000
0G
0q
#16000000
b11111000101001101111000101111010 !
b0000 "
b01100111101000101110010011111011 $
b0110 %
1&
1(
1+
b11111000101001101111000101111010 ,
b0000 -
b01100111101000101110010011111011 /
b0110 0
b1000 3
b1110 6
08
19
1:
0;
1<
b1100 >
b1111 @
0B
1C
1G
b11111000101001101111000101111010 K
b0000 L
b01100111101000101110010011111011 N
b0110 O
1P
1R
1U
b11111000101001101111000101111010 V
b0000 W
b01100111101000101110010011111011 Y
b0110 Z
b1000 ]
b1110 `
0b
1c
1d
0e
1f
b1100 h
b1111 j
0l
1m
1q
0u
1v
1w
1x
0y
#20000000
0G
0q
#24000000
b01001111110000000111010001110100 !
b1100 "
0#
b11100111010100000101010010011001 $
b1111 %
0&
0(
0)
0+
bUUUUUUUUUUUUUUUUUUUUUUUUUUUUUUUU ,
b1100 -
bUUUUUUUUUUUUUUUUUUUUUUUUUUUUUUUU /
b1111 0
b11111001011000101010000110010000 2
b0010 3
b11010 5
b0000 6
b0110 >
b1100 @
1B
1G
b01001111110000000111010001110100 K
b1100 L
0M
b11100111010100000101010010011001 N
b1111 O
0P
0R
0S
0U
bUUUUUUUUUUUUUUUUUUUUUUUUUUUUUUUU V
b1100 W
bUUUUUUUUUUUUUUUUUUUUUUUUUUUUUUUU Y
b1111 Z
b11111001011000101010000110010000 \
b0010 ]
b11010 _
b0000 `
b0110 h
b1100 j
1l
1q
#28000000
0G
0q
#32000000
b01100101101010010010011100101000 !
b0000 "
1#
b10001111110001101101101100000111 $
b1101 %
1&
1(
0*
1+
b01100101101010010010011100101000 ,
b0000 -
b10001111110001101101101100000111 /
b1101 0
bUUUUUUUUUUUUUUUUUUUUUUUUUUUUUUUU 2
b0101 3
bUUUUU 5
b1100 6
0:
0<
b0010 >
b1000 @
1G
b01100101101010010010011100101000 K
b0000 L
1M
b10001111110001101101101100000111 N
b1101 O
1P
1R
0T
1U
b01100101101010010010011100101000 V
b0000 W
b10001111110001101101101100000111 Y
b1101 Z
bUUUUUUUUUUUUUUUUUUUUUUUUUUUUUUUU \
b0101 ]
bUUUUU _
b1100 `
0d
0f
b0010 h
b1000 j
1q
0v
0x
#36000000
0G
0q
#40000000
b01101100000010100100100100101000 !
b1111 "
0#
b11001011110100101100111110100000 $
b1100 %
0&
1)
bUUUUUUUUUUUUUUUUUUUUUUUUUUUUUUUU ,
b1111 -
bUUUUUUUUUUUUUUUUUUUUUUUUUUUUUUUU /
b1100 0
b01100111101000101110010011111011 2
b0110 3
b0101 6
1:
b0101 >
b0101 @
0B
1G
b01101100000010100100100100101000 K
b1111 L
0M
b11001011110100101100111110100000 N
b1100 O
0P
1S
bUUUUUUUUUUUUUUUUUUUUUUUUUUUUUUUU V
b1111 W
bUUUUUUUUUUUUUUUUUUUUUUUUUUUUUUUU Y
b1100 Z
b01100111101000101110010011111011 \
b0110 ]
b0101 `
1d
b0101 h
b0101 j
0l
1q
1x
#44000000
0G
0q
#48000000
b11011000100100000000110011101101 !
b1101 "
1#
b00110001111010101000111101010101 $
b0110 %
1&
1'
0(
0)
1*
0+
b11011000100100000000110011101101 ,
b1101 -
b00110001111010101000111101010101 /
b0110 0
b11111001011000101010000110010000 2
b0010 3
b1001 6
b1101 >
b0000 @
1G
b11011000100100000000110011101101 K
b1101 L
1M
b00110001111010101000111101010101 N
b0110 O
1P
1Q
0R
0S
1T
0U
b11011000100100000000110011101101 V
b1101 W
b00110001111010101000111101010101 Y
b0110 Z
b11111001011000101010000110010000 \
b0010 ]
b1001 `
b1101 h
b0000 j
1q
#52000000
0G
0q
#56000000
b11011110101011010101010010111100 !
b0000 "
b01111001100111000111110010110011 $
b1111 %
1(
0*
b11011110101011010101010010111100 ,
b0000 -
b01111001100111000111110010110011 /
b1111 0
bUUUUUUUUUUUUUUUUUUUUUUUUUUUUUUUU 2
b0001 3
b10101 5
b0110 6
b1000 >
b0100 @
1B
0C
1G
b11011110101011010101010010111100 K
b0000 L
b01111001100111000111110010110011 N
b1111 O
1R
0T
b11011110101011010101010010111100 V
b0000 W
b01111001100111000111110010110011 Y
b1111 Z
bUUUUUUUUUUUUUUUUUUUUUUUUUUUUUUUU \
b0001 ]
b10101 _
b0110 `
b1000 h
b0100 j
1l
0m
1q
#60000000
0G
0q
#64000000
b01111000000111100101000000110110 !
0#
b01110100111011000100001001001000 $
b1001 %
1+
b01110100111011000100001001001000 /
b1001 0
b11011110101011010101010010111100 2
b0000 3
bUUUUU 5
b0111 6
18
0:
b0011 >
b0010 @
0B
1G
b01111000000111100101000000110110 K
0M
b01110100111011000100001001001000 N
b1001 O
1U
b01110100111011000100001001001000 Y
b1001 Z
b11011110101011010101010010111100 \
b0000 ]
bUUUUU _
b0111 `
1b
0d
b0011 h
b0010 j
0l
1q
1u
0x
#68000000
0G
0q
#72000000
b10011111101011000111000100000111 !
1#
b00110110111101110100100001111100 $
b0001 %
0&
0'
0(
1*
0+
b10011111101011000111000100000111 ,
bUUUUUUUUUUUUUUUUUUUUUUUUUUUUUUUU /
b0001 0
bUUUUUUUUUUUUUUUUUUUUUUUUUUUUUUUU 2
b1011 3
b10101 5
b0110 6
b0111 >
b0100 @
1B
1G
b10011111101011000111000100000111 K
1M
b00110110111101110100100001111100 N
b0001 O
0P
0Q
0R
1T
0U
b10011111101011000111000100000111 V
bUUUUUUUUUUUUUUUUUUUUUUUUUUUUUUUU Y
b0001 Z
bUUUUUUUUUUUUUUUUUUUUUUUUUUUUUUUU \
b1011 ]
b10101 _
b0110 `
b0111 h
b0100 j
1l
1q
#76000000
0G
0q
#80000000
b00010100011110111001011110000110 !
0#
b11001100001001111101000011001011 $
b1100 %
1'
0*
b1100 0
b1100 3
bUUUUU 5
b0100 6
b1011 >
b0000 @
0B
1G
b00010100011110111001011110000110 K
0M
b11001100001001111101000011001011 N
b1100 O
1Q
0T
b1100 Z
b1100 ]
bUUUUU _
b0100 `
b1011 h
b0000 j
0l
1q
#84000000
0G
0q
#88000000
b01000101110000010110101101000101 !
b0001 "
b10110001110010111001011001011000 $
b1011 %
1&
1)
1*
bUUUUUUUUUUUUUUUUUUUUUUUUUUUUUUUU ,
b0001 -
b10110001110010111001011001011000 /
b1011 0
b0011 3
b01000 5
b1001 6
b1110 >
1B
1G
b01000101110000010110101101000101 K
b0001 L
b10110001110010111001011001011000 N
b1011 O
1P
1S
1T
bUUUUUUUUUUUUUUUUUUUUUUUUUUUUUUUU V
b0001 W
b10110001110010111001011001011000 Y
b1011 Z
b0011 ]
b01000 _
b1001 `
b1110 h
1l
1q
#92000000
0G
0q
#96000000
b01101000010111001111001111001100 !
b1000 "
b10111101010111101101111111111110 $
b1001 %
1(
1+
b1000 -
b10111101010111101101111111111110 /
b1001 0
b0101 3
bUUUUU 5
b1010 6
1:
1<
b1011 >
b0001 @
0B
1C
1G
b01101000010111001111001111001100 K
b1000 L
b10111101010111101101111111111110 N
b1001 O
1R
1U
b1000 W
b10111101010111101101111111111110 Y
b1001 Z
b0101 ]
bUUUUU _
b1010 `
1d
1f
b1011 h
b0001 j
0l
1m
1q
1v
1x
#100000000
0G
0q
#104000000
b11100000011001010001100011010110 !
b1011 "
1#
b00101000000111001010111101100001 $
b0100 %
0'
0(
0+
b11100000011001010001100011010110 ,
b1011 -
b00101000000111001010111101100001 /
b0100 0
b0111 3
b10000 5
b0010 6
b0000 >
b1110 @
0C
1G
b11100000011001010001100011010110 K
b1011 L
1M
b00101000000111001010111101100001 N
b0100 O
0Q
0R
0U
b11100000011001010001100011010110 V
b1011 W
b00101000000111001010111101100001 Y
b0100 Z
b0111 ]
b10000 _
b0010 `
b0000 h
b1110 j
0m
1q
#108000000
0G
0q
#112000000
b00000111011010011110011110111101 !
b0101 "
0#
b10001000011101011000100000100110 $
b0111 %
0&
1(
0)
1+
bUUUUUUUUUUUUUUUUUUUUUUUUUUUUUUUU ,
b0101 -
bUUUUUUUUUUUUUUUUUUUUUUUUUUUUUUUU /
b0111 0
b00101000000111001010111101100001 2
b0100 3
bUUUUU 5
b0101 6
08
0:
b0100 >
b0010 @
1C
1G
b00000111011010011110011110111101 K
b0101 L
0M
b10001000011101011000100000100110 N
b0111 O
0P
1R
0S
1U
bUUUUUUUUUUUUUUUUUUUUUUUUUUUUUUUU V
b0101 W
bUUUUUUUUUUUUUUUUUUUUUUUUUUUUUUUU Y
b0111 Z
b00101000000111001010111101100001 \
b0100 ]
bUUUUU _
b0101 `
0b
0d
b0100 h
b0010 j
1m
1q
0u
0x
#116000000
0G
0q
#120000000
b10101010111011101001111100000011 !
b1010 "
1#
b01110100101011000110010000100100 $
b1011 %
1'
0(
1)
0+
b10101010111011101001111100000011 ,
b1010 -
b11100000011001010001100011010110 /
b1011 0
bUUUUUUUUUUUUUUUUUUUUUUUUUUUUUUUU 2
b0101 3
b10110 5
b1011 6
b0111 >
b1000 @
1B
0C
1G
b10101010111011101001111100000011 K
b1010 L
1M
b01110100101011000110010000100100 N
b1011 O
1Q
0R
1S
0U
b10101010111011101001111100000011 V
b1010 W
b11100000011001010001100011010110 Y
b1011 Z
bUUUUUUUUUUUUUUUUUUUUUUUUUUUUUUUU \
b0101 ]
b10110 _
b1011 `
b0111 h
b1000 j
1l
0m
1q
#124000000
0G
0q
#128000000
b10100111000100001000110110111010 !
b0001 "
b00011010100111101001010000110010 $
b0110 %
1&
0'
b10100111000100001000110110111010 ,
b0001 -
b00011010100111101001010000110010 /
b0110 0
b0111 3
b00001 5
b0100 6
b1101 >
b0100 @
1C
1G
b10100111000100001000110110111010 K
b0001 L
b00011010100111101001010000110010 N
b0110 O
1P
0Q
b10100111000100001000110110111010 V
b0001 W
b00011010100111101001010000110010 Y
b0110 Z
b0111 ]
b00001 _
b0100 `
b1101 h
b0100 j
1m
1q
#132000000
0G
0q
#136000000
b00010001110001111101110001110101 !
b1111 "
0#
b10111100111011001000100110110101 $
b1011 %
1+
b01111001100111000111110010110011 ,
b1111 -
b10111100111011001000100110110101 /
b1011 0
b01111001100111000111110010110011 2
b1111 3
b00011 5
b1010 6
09
1:
b0000 >
0B
1G
b00010001110001111101110001110101 K
b1111 L
0M
b10111100111011001000100110110101 N
b1011 O
1U
b01111001100111000111110010110011 V
b1111 W
b10111100111011001000100110110101 Y
b1011 Z
b01111001100111000111110010110011 \
b1111 ]
b00011 _
b1010 `
0c
1d
b0000 h
0l
1q
0w
1x
#140000000
0G
0q
#144000000
b11100101101001101101000011100000 !
b0100 "
b10101000110110001001000001001010 $
0*
0+
b00101000000111001010111101100001 ,
b0100 -
b10101000110110001001000001001010 /
bUUUUUUUUUUUUUUUUUUUUUUUUUUUUUUUU 2
b0101 3
b11110 5
b1001 6
b1011 >
1B
1G
b11100101101001101101000011100000 K
b0100 L
b10101000110110001001000001001010 N
0T
0U
b00101000000111001010111101100001 V
b0100 W
b10101000110110001001000001001010 Y
bUUUUUUUUUUUUUUUUUUUUUUUUUUUUUUUU \
b0101 ]
b11110 _
b1001 `
b1011 h
1l
1q
#148000000
0G
0q
#152000000
b01110110110100010100001001001101 !
b0011 "
1#
b00010111110100101101110001010000 $
b1000 %
0&
1'
1(
0)
b01110110110100010100001001001101 ,
b0011 -
bUUUUUUUUUUUUUUUUUUUUUUUUUUUUUUUU /
b1000 0
b10101010111011101001111100000011 2
b1010 3
b01101 5
b1101 6
b1110 >
b0110 @
0B
0C
1G
b01110110110100010100001001001101 K
b0011 L
1M
b00010111110100101101110001010000 N
b1000 O
0P
1Q
1R
0S
b01110110110100010100001001001101 V
b0011 W
bUUUUUUUUUUUUUUUUUUUUUUUUUUUUUUUU Y
b1000 Z
b10101010111011101001111100000011 \
b1010 ]
b01101 _
b1101 `
b1110 h
b0110 j
0l
0m
1q
#156000000
0G
0q
#160000000
b01010001001101101010101100010001 !
b1101 "
b10111000011100001101010111001010 $
b1100 %
1&
0'
0(
1)
1*
b01010001001101101010101100010001 ,
b1101 -
b10111000011100001101010111001010 /
b1100 0
b11111001011000101010000110010000 2
b0010 3
bUUUUU 5
b0111 6
b1100 >
b1111 @
1B
1C
1G
b01010001001101101010101100010001 K
b1101 L
b10111000011100001101010111001010 N
b1100 O
1P
0Q
0R
1S
1T
b01010001001101101010101100010001 V
b1101 W
b10111000011100001101010111001010 Y
b1100 Z
b11111001011000101010000110010000 \
b0010 ]
bUUUUU _
b0111 `
b1100 h
b1111 j
1l
1m
1q
#164000000
0G
0q
#168000000
b10000001110010100010110110010100 !
b0100 "
0#
b00010100101001000000001110100011 $
b1110 %
0&
1(
b00101000000111001010111101100001 ,
b0100 -
bUUUUUUUUUUUUUUUUUUUUUUUUUUUUUUUU /
b1110 0
b01111001100111000111110010110011 2
b1111 3
b01010 5
b1011 6
b1101 >
b0010 @
0C
1G
b10000001110010100010110110010100 K
b0100 L
0M
b00010100101001000000001110100011 N
b1110 O
0P
1R
b00101000000111001010111101100001 V
b0100 W
bUUUUUUUUUUUUUUUUUUUUUUUUUUUUUUUU Y
b1110 Z
b01111001100111000111110010110011 \
b1111 ]
b01010 _
b1011 `
b1101 h
b0010 j
0m
1q
#172000000
0G
0q
#176000000
b00000111010000001110101000111101 !
b1110 "
b01101100110111111000100001110100 $
b1001 %
1'
0(
0)
0*
1+
bUUUUUUUUUUUUUUUUUUUUUUUUUUUUUUUU ,
b1110 -
b10111101010111101101111111111110 /
b1001 0
b10101010111011101001111100000011 2
b1010 3
b10000 5
b0010 6
18
0:
0<
b0010 >
b0001 @
1C
1G
b00000111010000001110101000111101 K
b1110 L
b01101100110111111000100001110100 N
b1001 O
1Q
0R
0S
0T
1U
bUUUUUUUUUUUUUUUUUUUUUUUUUUUUUUUU V
b1110 W
b10111101010111101101111111111110 Y
b1001 Z
b10101010111011101001111100000011 \
b1010 ]
b10000 _
b0010 `
1b
0d
0f
b0010 h
b0001 j
1m
1q
1u
0v
0x
#180000000
0G
0q
#184000000
b00101000111000001100111111100001 !
b1100 "
1#
b10001011111011111001111111100000 $
b1100 %
1)
1*
b00101000111000001100111111100001 ,
b1100 -
b00101000111000001100111111100001 /
b1100 0
bUUUUUUUUUUUUUUUUUUUUUUUUUUUUUUUU 2
b0111 3
bUUUUU 5
b1000 6
1:
1<
b1011 >
b0111 @
0C
1G
b00101000111000001100111111100001 K
b1100 L
1M
b10001011111011111001111111100000 N
b1100 O
1S
1T
b00101000111000001100111111100001 V
b1100 W
b00101000111000001100111111100001 Y
b1100 Z
bUUUUUUUUUUUUUUUUUUUUUUUUUUUUUUUU \
b0111 ]
bUUUUU _
b1000 `
1d
1f
b1011 h
b0111 j
0m
1q
1v
1x
#188000000
0G
0q
#192000000
b00011110000011110111101101001011 !
b1001 "
b11110001011011110100111101011011 $
b1001 %
0'
1(
0*
0+
b00011110000011110111101101001011 ,
b1001 -
b00011110000011110111101101001011 /
b1001 0
b10101010111011101001111100000011 2
b1010 3
b10001 5
b1101 6
1G
b00011110000011110111101101001011 K
b1001 L
b11110001011011110100111101011011 N
b1001 O
0Q
1R
0T
0U
b00011110000011110111101101001011 V
b1001 W
b00011110000011110111101101001011 Y
b1001 Z
b10101010111011101001111100000011 \
b1010 ]
b10001 _
b1101 `
1q
#196000000
0G
0q
#200000000
b01011000111010110111010110111101 !
b1111 "
0#
b11101011011011110000110111001110 $
1'
0)
b01111001100111000111110010110011 ,
b1111 -
b00101000000111001010111101100001 2
b0100 3
b00001 5
b0100 6
b1000 >
b1110 @
1C
1G
b01011000111010110111010110111101 K
b1111 L
0M
b11101011011011110000110111001110 N
1Q
0S
b01111001100111000111110010110011 V
b1111 W
b00101000000111001010111101100001 \
b0100 ]
b00001 _
b0100 `
b1000 h
b1110 j
1m
1q
#204000000
0G
0q
#208000000
b00100011101101011110111010110011 !
b0100 "
1#
b00101000111001001100100000100011 $
b1011 %
1&
0(
1+
b00100011101101011110111010110011 ,
b0100 -
b00101000111001001100100000100011 /
b1011 0
b00011110000011110111101101001011 2
b1001 3
b1100 6
0:
0<
b1010 >
b0010 @
0B
1G
b00100011101101011110111010110011 K
b0100 L
1M
b00101000111001001100100000100011 N
b1011 O
1P
0R
1U
b00100011101101011110111010110011 V
b0100 W
b00101000111001001100100000100011 Y
b1011 Z
b00011110000011110111101101001011 \
b1001 ]
b1100 `
0d
0f
b1010 h
b0010 j
0l
1q
0v
0x
#212000000
0G
0q
#216000000
b01111001101011001111111101110010 !
b1111 "
0#
b10111100110110010101111000101100 $
b0011 %
1(
b01111001100111000111110010110011 ,
b1111 -
b10111100110110010101111000101100 /
b0011 0
b00101000111001001100100000100011 2
b1011 3
b00011 5
b1010 6
19
b1000 >
b0000 @
1G
b01111001101011001111111101110010 K
b1111 L
0M
b10111100110110010101111000101100 N
b0011 O
1R
b01111001100111000111110010110011 V
b1111 W
b10111100110110010101111000101100 Y
b0011 Z
b00101000111001001100100000100011 \
b1011 ]
b00011 _
b1010 `
1c
b1000 h
b0000 j
1q
1w
#220000000
0G
0q
#224000000
b10110111101100100001100111100010 !
b1100 "
b01001001000111111111010000101010 $
b1001 %
0&
0(
1)
b00101000111000001100111111100001 ,
b1100 -
b00011110000011110111101101001011 /
b1001 0
b10101010111011101001111100000011 2
b1010 3
b01011 5
b1001 6
09
1:
b0101 >
b1101 @
1G
b10110111101100100001100111100010 K
b1100 L
b01001001000111111111010000101010 N
b1001 O
0P
0R
1S
b00101000111000001100111111100001 V
b1100 W
b00011110000011110111101101001011 Y
b1001 Z
b10101010111011101001111100000011 \
b1010 ]
b01011 _
b1001 `
0c
1d
b0101 h
b1101 j
1q
0w
1x
#228000000
0G
0q
#232000000
b00110100001110000000111111010001 !
b1010 "
1#
b10000001000011011100110010111011 $
b1111 %
1&
0'
1*
0+
b00110100001110000000111111010001 ,
b1010 -
b10000001000011011100110010111011 /
b1111 0
b00101000111001001100100000100011 2
b1011 3
b10001 5
b1010 6
b0011 >
b1111 @
1B
1G
b00110100001110000000111111010001 K
b1010 L
1M
b10000001000011011100110010111011 N
b1111 O
1P
0Q
1T
0U
b00110100001110000000111111010001 V
b1010 W
b10000001000011011100110010111011 Y
b1111 Z
b00101000111001001100100000100011 \
b1011 ]
b10001 _
b1010 `
b0011 h
b1111 j
1l
1q
#236000000
0G
0q
#240000000
b10110001100111001001110101111101 !
b0101 "
b01100110111011011111010100111000 $
b0010 %
0&
1'
0*
b10110001100111001001110101111101 ,
b0101 -
b11111001011000101010000110010000 /
b0010 0
b00100011101101011110111010110011 2
b0100 3
b1101 6
b1001 >
b0111 @
1G
b10110001100111001001110101111101 K
b0101 L
b01100110111011011111010100111000 N
b0010 O
0P
1Q
0T
b10110001100111001001110101111101 V
b0101 W
b11111001011000101010000110010000 Y
b0010 Z
b00100011101101011110111010110011 \
b0100 ]
b1101 `
b1001 h
b0111 j
1q
#244000000
0G
0q
#248000000
b01111010111111011001111011110001 !
b1011 "
b11000111101011001110011000101010 $
b0001 %
1&
0'
1+
b01111010111111011001111011110001 ,
b1011 -
b11000111101011001110011000101010 /
b0001 0
b11000111101011001110011000101010 2
b0001 3
b11101 5
b0101 6
08
b0000 >
b1110 @
1G
b01111010111111011001111011110001 K
b1011 L
b11000111101011001110011000101010 N
b0001 O
1P
0Q
1U
b01111010111111011001111011110001 V
b1011 W
b11000111101011001110011000101010 Y
b0001 Z
b11000111101011001110011000101010 \
b0001 ]
b11101 _
b0101 `
0b
b0000 h
b1110 j
1q
0u
#252000000
0G
0q
#256000000
b11000000101001001000110001100101 !
b1111 "
0#
b10100111000001000110111001111011 $
b1001 %
1'
0)
1*
b10000001000011011100110010111011 ,
b1111 -
b10100111000001000110111001111011 /
b1001 0
b10010 5
b0110 6
18
0:
1<
b0011 >
b1000 @
0C
1G
b11000000101001001000110001100101 K
b1111 L
0M
b10100111000001000110111001111011 N
b1001 O
1Q
0S
1T
b10000001000011011100110010111011 V
b1111 W
b10100111000001000110111001111011 Y
b1001 Z
b10010 _
b0110 `
1b
0d
1f
b0011 h
b1000 j
0m
1q
1u
1v
0x
#260000000
0G
0q
#264000000
b11011101101000000100111100110001 !
b1001 "
b00100110011011101001011101110000 $
b0110 %
1)
0*
b10100111000001000110111001111011 ,
b1001 -
b00100110011011101001011101110000 /
b0110 0
b10000001000011011100110010111011 2
b1111 3
b11011 5
b1111 6
1:
0<
b0000 >
b0000 @
1C
1G
b11011101101000000100111100110001 K
b1001 L
b00100110011011101001011101110000 N
b0110 O
1S
0T
b10100111000001000110111001111011 V
b1001 W
b00100110011011101001011101110000 Y
b0110 Z
b10000001000011011100110010111011 \
b1111 ]
b11011 _
b1111 `
1d
0f
b0000 h
b0000 j
1m
1q
0v
1x
#268000000
0G
0q
#272000000
b11011000111110110100001110111001 !
b1100 "
b01100010001000001101010010011010 $
b0010 %
0'
0+
b00101000111000001100111111100001 ,
b1100 -
b01100010001000001101010010011010 /
b0010 0
b01100010001000001101010010011010 2
b0010 3
bUUUUU 5
b1000 6
b1000 >
b1110 @
1G
b11011000111110110100001110111001 K
b1100 L
b01100010001000001101010010011010 N
b0010 O
0Q
0U
b00101000111000001100111111100001 V
b1100 W
b01100010001000001101010010011010 Y
b0010 Z
b01100010001000001101010010011010 \
b0010 ]
bUUUUU _
b1000 `
b1000 h
b1110 j
1q
#276000000
0G
0q
#280000000
b11001000010111011111110001000110 !
b01111111001000010110100110111010 $
b1100 %
b01111111001000010110100110111010 ,
b01111111001000010110100110111010 /
b1100 0
bUUUUUUUUUUUUUUUUUUUUUUUUUUUUUUUU 2
b0111 3
b10011 5
b0100 6
b0001 >
b1111 @
1G
b11001000010111011111110001000110 K
b01111111001000010110100110111010 N
b1100 O
b01111111001000010110100110111010 V
b01111111001000010110100110111010 Y
b1100 Z
bUUUUUUUUUUUUUUUUUUUUUUUUUUUUUUUU \
b0111 ]
b10011 _
b0100 `
b0001 h
b1111 j
1q
#284000000
0G
0q
#288000000
b11001110001100101111001001001011 !
b1101 "
b01100011000101101001000000100000 $
b1001 %
1'
1(
0)
b01010001001101101010101100010001 ,
b1101 -
b01100011000101101001000000100000 /
b1001 0
b10000001000011011100110010111011 2
b1111 3
b10000 5
b0110 6
b1010 @
0C
1G
b11001110001100101111001001001011 K
b1101 L
b01100011000101101001000000100000 N
b1001 O
1Q
1R
0S
b01010001001101101010101100010001 V
b1101 W
b01100011000101101001000000100000 Y
b1001 Z
b10000001000011011100110010111011 \
b1111 ]
b10000 _
b0110 `
b1010 j
0m
1q
#292000000
0G
0q
#296000000
b01100111001100010111000110101010 !
b0011 "
1#
b10011100001001111111100000011100 $
b1110 %
0'
0(
1)
b01100111001100010111000110101010 ,
b0011 -
b10011100001001111111100000011100 /
b1110 0
b10011100001001111111100000011100 2
b1110 3
b11010 5
b1100 6
b1100 >
0B
1G
b01100111001100010111000110101010 K
b0011 L
1M
b10011100001001111111100000011100 N
b1110 O
0Q
0R
1S
b01100111001100010111000110101010 V
b0011 W
b10011100001001111111100000011100 Y
b1110 Z
b10011100001001111111100000011100 \
b1110 ]
b11010 _
b1100 `
b1100 h
0l
1q
#300000000
0G
0q
#304000000
b11011011100011111100101101001010 !
b1100 "
0#
b01001110001010001010101101000010 $
b0111 %
0&
b01111111001000010110100110111010 ,
b1100 -
bUUUUUUUUUUUUUUUUUUUUUUUUUUUUUUUU /
b0111 0
b10011111101011000111000100000111 2
b0000 3
b11101 5
b0101 6
b1110 >
b1001 @
1B
1G
b11011011100011111100101101001010 K
b1100 L
0M
b01001110001010001010101101000010 N
b0111 O
0P
b01111111001000010110100110111010 V
b1100 W
bUUUUUUUUUUUUUUUUUUUUUUUUUUUUUUUU Y
b0111 Z
b10011111101011000111000100000111 \
b0000 ]
b11101 _
b0101 `
b1110 h
b1001 j
1l
1q
#308000000
0G
0q
#312000000
b01100110010111111001011110111110 !
b00101010110000000101000110001110 $
b0011 %
1&
1(
0)
1*
1+
b00101010110000000101000110001110 /
b0011 0
b01010001001101101010101100010001 2
b1101 3
b01110 5
b0011 6
08
19
0:
1<
b1001 >
b1110 @
0B
1G
b01100110010111111001011110111110 K
b00101010110000000101000110001110 N
b0011 O
1P
1R
0S
1T
1U
b00101010110000000101000110001110 Y
b0011 Z
b01010001001101101010101100010001 \
b1101 ]
b01110 _
b0011 `
0b
1c
0d
1f
b1001 h
b1110 j
0l
1q
0u
1v
1w
0x
#316000000
0G
0q
