TME5/EXE/EXE.vcd
$date
  Mon Nov  1 12:46:22 2021
$end
$version
  GHDL v0
$end
$timescale
  1 fs
$end
$scope module standard $end
$upscope $end
$scope module std_logic_1164 $end
$upscope $end
$scope module numeric_std $end
$upscope $end
$scope module math_real $end
$upscope $end
$scope module exe_tb $end
$var reg 1 ! dec2exe_empty $end
$var reg 1 " exe_pop $end
$var reg 32 # dec_op1[31:0] $end
$var reg 32 $ dec_op2[31:0] $end
$var reg 4 % dec_exe_dest[3:0] $end
$var reg 1 & dec_exe_wb $end
$var reg 1 ' dec_flag_wb $end
$var reg 32 ( dec_mem_data[31:0] $end
$var reg 4 ) dec_mem_dest[3:0] $end
$var reg 1 * dec_pre_index $end
$var reg 1 + dec_mem_lw $end
$var reg 1 , dec_mem_lb $end
$var reg 1 - dec_mem_sw $end
$var reg 1 . dec_mem_sb $end
$var reg 1 / dec_shift_lsl $end
$var reg 1 0 dec_shift_lsr $end
$var reg 1 1 dec_shift_asr $end
$var reg 1 2 dec_shift_ror $end
$var reg 1 3 dec_shift_rrx $end
$var reg 5 4 dec_shift_val[4:0] $end
$var reg 1 5 dec_cy $end
$var reg 1 6 dec_comp_op1 $end
$var reg 1 7 dec_comp_op2 $end
$var reg 1 8 dec_alu_cy $end
$var reg 2 9 dec_alu_cmd[1:0] $end
$var reg 32 : exe_res[31:0] $end
$var reg 1 ; exe_c $end
$var reg 1 < exe_v $end
$var reg 1 = exe_n $end
$var reg 1 > exe_z $end
$var reg 4 ? exe_dest[3:0] $end
$var reg 1 @ exe_wb $end
$var reg 1 A exe_flag_wb $end
$var reg 32 B exe_mem_adr[31:0] $end
$var reg 32 C exe_mem_data[31:0] $end
$var reg 4 D exe_mem_dest[3:0] $end
$var reg 1 E exe_mem_lw $end
$var reg 1 F exe_mem_lb $end
$var reg 1 G exe_mem_sw $end
$var reg 1 H exe_mem_sb $end
$var reg 1 I exe2mem_empty $end
$var reg 1 J mem_pop $end
$var reg 1 K ck $end
$var reg 1 L reset_n $end
$var reg 1 M vdd $end
$var reg 1 N vss $end
$scope module exe_stage $end
$var reg 1 O dec2exe_empty $end
$var reg 1 P exe_pop $end
$var reg 32 Q dec_op1[31:0] $end
$var reg 32 R dec_op2[31:0] $end
$var reg 4 S dec_exe_dest[3:0] $end
$var reg 1 T dec_exe_wb $end
$var reg 1 U dec_flag_wb $end
$var reg 32 V dec_mem_data[31:0] $end
$var reg 4 W dec_mem_dest[3:0] $end
$var reg 1 X dec_pre_index $end
$var reg 1 Y dec_mem_lw $end
$var reg 1 Z dec_mem_lb $end
$var reg 1 [ dec_mem_sw $end
$var reg 1 \ dec_mem_sb $end
$var reg 1 ] dec_shift_lsl $end
$var reg 1 ^ dec_shift_lsr $end
$var reg 1 _ dec_shift_asr $end
$var reg 1 ` dec_shift_ror $end
$var reg 1 a dec_shift_rrx $end
$var reg 5 b dec_shift_val[4:0] $end
$var reg 1 c dec_cy $end
$var reg 1 d dec_comp_op1 $end
$var reg 1 e dec_comp_op2 $end
$var reg 1 f dec_alu_cy $end
$var reg 2 g dec_alu_cmd[1:0] $end
$var reg 32 h exe_res[31:0] $end
$var reg 1 i exe_c $end
$var reg 1 j exe_v $end
$var reg 1 k exe_n $end
$var reg 1 l exe_z $end
$var reg 4 m exe_dest[3:0] $end
$var reg 1 n exe_wb $end
$var reg 1 o exe_flag_wb $end
$var reg 32 p exe_mem_adr[31:0] $end
$var reg 32 q exe_mem_data[31:0] $end
$var reg 4 r exe_mem_dest[3:0] $end
$var reg 1 s exe_mem_lw $end
$var reg 1 t exe_mem_lb $end
$var reg 1 u exe_mem_sw $end
$var reg 1 v exe_mem_sb $end
$var reg 1 w exe2mem_empty $end
$var reg 1 x mem_pop $end
$var reg 1 y ck $end
$var reg 1 z reset_n $end
$var reg 1 { vdd $end
$var reg 1 | vss $end
$var reg 32 } res_shift[31:0] $end
$var reg 32 !" not_res_shift[31:0] $end
$var reg 32 "" not_dec_op1[31:0] $end
$var reg 32 #" alu_in_op2[31:0] $end
$var reg 32 $" alu_in_op1[31:0] $end
$var reg 1 %" cy_shift_out $end
$var reg 1 &" cy_alu_out $end
$var reg 32 '" res_alu[31:0] $end
$var reg 1 (" exe2mem_full $end
$var reg 32 )" mem_adr[31:0] $end
$var reg 1 *" exe_push $end
$scope module shifter_inst $end
$var reg 1 +" shift_lsl $end
$var reg 1 ," shift_lsr $end
$var reg 1 -" shift_asr $end
$var reg 1 ." shift_ror $end
$var reg 1 /" shift_rrx $end
$var reg 5 0" shift_val[4:0] $end
$var reg 32 1" din[31:0] $end
$var reg 1 2" cin $end
$var reg 32 3" dout[31:0] $end
$var reg 1 4" cout $end
$var reg 1 5" vdd $end
$var reg 1 6" vss $end
$upscope $end
$scope module alu_inst $end
$var reg 32 7" op1[31:0] $end
$var reg 32 8" op2[31:0] $end
$var reg 1 9" cin $end
$var reg 2 :" cmd[1:0] $end
$var reg 32 ;" res[31:0] $end
$var reg 1 <" cout $end
$var reg 1 =" z $end
$var reg 1 >" n $end
$var reg 1 ?" v $end
$var reg 1 @" vdd $end
$var reg 1 A" vss $end
$upscope $end
$scope module exec2mem $end
$upscope $end
$scope module mux_shift_alu $end
$var reg 32 B" op1[31:0] $end
$var reg 32 C" op2[31:0] $end
$var reg 1 D" cmd $end
$var reg 32 E" res[31:0] $end
$upscope $end
$scope module mux_op1_alu $end
$var reg 32 F" op1[31:0] $end
$var reg 32 G" op2[31:0] $end
$var reg 1 H" cmd $end
$var reg 32 I" res[31:0] $end
$upscope $end
$scope module mux_alu_fifo_mem $end
$var reg 32 J" op1[31:0] $end
$var reg 32 K" op2[31:0] $end
$var reg 1 L" cmd $end
$var reg 32 M" res[31:0] $end
$upscope $end
$upscope $end
$upscope $end
$enddefinitions $end
#0
0!
U"
bUUUUUUUUUUUUUUUUUUUUUUUUUUUUUUUU #
bUUUUUUUUUUUUUUUUUUUUUUUUUUUUUUUU $
b0000 %
0&
0'
b00000000000000000000000000000000 (
b0000 )
U*
0+
0,
0-
0.
U/
U0
U1
U2
U3
bUUUUU 4
U5
U6
U7
U8
bUU 9
bUUUUUUUUUUUUUUUUUUUUUUUUUUUUUUUU :
U;
0<
0=
0>
bUUUU ?
U@
UA
bUUUUUUUUUUUUUUUUUUUUUUUUUUUUUUUU B
bUUUUUUUUUUUUUUUUUUUUUUUUUUUUUUUU C
bUUUU D
UE
UF
UG
UH
UI
1J
1K
0L
0M
0N
0O
UP
bUUUUUUUUUUUUUUUUUUUUUUUUUUUUUUUU Q
bUUUUUUUUUUUUUUUUUUUUUUUUUUUUUUUU R
b0000 S
0T
0U
b00000000000000000000000000000000 V
b0000 W
UX
0Y
0Z
0[
0\
U]
U^
U_
U`
Ua
bUUUUU b
Uc
Ud
Ue
Uf
bUU g
bUUUUUUUUUUUUUUUUUUUUUUUUUUUUUUUU h
Ui
0j
0k
0l
bUUUU m
Un
Uo
bUUUUUUUUUUUUUUUUUUUUUUUUUUUUUUUU p
bUUUUUUUUUUUUUUUUUUUUUUUUUUUUUUUU q
bUUUU r
Us
Ut
Uu
Uv
Uw
1x
1y
0z
0{
0|
bUUUUUUUUUUUUUUUUUUUUUUUUUUUUUUUU }
bUUUUUUUUUUUUUUUUUUUUUUUUUUUUUUUU !"
bUUUUUUUUUUUUUUUUUUUUUUUUUUUUUUUU ""
bUUUUUUUUUUUUUUUUUUUUUUUUUUUUUUUU #"
bUUUUUUUUUUUUUUUUUUUUUUUUUUUUUUUU $"
U%"
U&"
bUUUUUUUUUUUUUUUUUUUUUUUUUUUUUUUU '"
U("
bUUUUUUUUUUUUUUUUUUUUUUUUUUUUUUUU )"
U*"
U+"
U,"
U-"
U."
U/"
bUUUUU 0"
bUUUUUUUUUUUUUUUUUUUUUUUUUUUUUUUU 1"
U2"
bUUUUUUUUUUUUUUUUUUUUUUUUUUUUUUUU 3"
U4"
05"
06"
bUUUUUUUUUUUUUUUUUUUUUUUUUUUUUUUU 7"
bUUUUUUUUUUUUUUUUUUUUUUUUUUUUUUUU 8"
U9"
bUU :"
bUUUUUUUUUUUUUUUUUUUUUUUUUUUUUUUU ;"
U<"
0="
0>"
0?"
0@"
0A"
bUUUUUUUUUUUUUUUUUUUUUUUUUUUUUUUU B"
bUUUUUUUUUUUUUUUUUUUUUUUUUUUUUUUU C"
UD"
bUUUUUUUUUUUUUUUUUUUUUUUUUUUUUUUU E"
bUUUUUUUUUUUUUUUUUUUUUUUUUUUUUUUU F"
bUUUUUUUUUUUUUUUUUUUUUUUUUUUUUUUU G"
UH"
bUUUUUUUUUUUUUUUUUUUUUUUUUUUUUUUU I"
bUUUUUUUUUUUUUUUUUUUUUUUUUUUUUUUU J"
bUUUUUUUUUUUUUUUUUUUUUUUUUUUUUUUU K"
UL"
bUUUUUUUUUUUUUUUUUUUUUUUUUUUUUUUU M"
#4000000
0K
0y
#8000000
b11111111100101100010101000011001 #
b00000010111111001011110001111111 $
0*
1/
00
01
02
03
b00001 4
05
16
07
08
b01 9
b00000000011010010101000011100110 :
0;
1K
b11111111100101100010101000011001 Q
b00000010111111001011110001111111 R
0X
1]
0^
0_
0`
0a
b00001 b
0c
1d
0e
0f
b01 g
b00000000011010010101000011100110 h
0i
1y
b00000101111110010111100011111110 }
b11111010000001101000011100000001 !"
b00000000011010011101010111100110 ""
b00000101111110010111100011111110 #"
b00000000011010011101010111100110 $"
0%"
b00000000011010010101000011100110 '"
b11111111100101100010101000011001 )"
1+"
0,"
0-"
0."
0/"
b00001 0"
b00000010111111001011110001111111 1"
02"
b00000101111110010111100011111110 3"
04"
b00000000011010011101010111100110 7"
b00000101111110010111100011111110 8"
09"
b01 :"
b00000000011010010101000011100110 ;"
b00000101111110010111100011111110 B"
b11111010000001101000011100000001 C"
0D"
b00000101111110010111100011111110 E"
b11111111100101100010101000011001 F"
b00000000011010011101010111100110 G"
1H"
b00000000011010011101010111100110 I"
b11111111100101100010101000011001 J"
b00000000011010010101000011100110 K"
0L"
b11111111100101100010101000011001 M"
#12000000
0K
0y
#16000000
b10001001111001011101001111011110 #
b10110111110001010011011110001011 $
b11010 4
b00 9
b10100010000110100010110000100001 :
1;
1=
1K
b10001001111001011101001111011110 Q
b10110111110001010011011110001011 R
b11010 b
b00 g
b10100010000110100010110000100001 h
1i
1k
1y
b00101100000000000000000000000000 }
b11010011111111111111111111111111 !"
b01110110000110100010110000100001 ""
b00101100000000000000000000000000 #"
b01110110000110100010110000100001 $"
1%"
0&"
b10100010000110100010110000100001 '"
b10001001111001011101001111011110 )"
b11010 0"
b10110111110001010011011110001011 1"
b00101100000000000000000000000000 3"
14"
b01110110000110100010110000100001 7"
b00101100000000000000000000000000 8"
b00 :"
b10100010000110100010110000100001 ;"
0<"
1>"
b00101100000000000000000000000000 B"
b11010011111111111111111111111111 C"
b00101100000000000000000000000000 E"
b10001001111001011101001111011110 F"
b01110110000110100010110000100001 G"
b01110110000110100010110000100001 I"
b10001001111001011101001111011110 J"
b10100010000110100010110000100001 K"
b10001001111001011101001111011110 M"
#20000000
0K
0y
#24000000
b11011001111010001011100100111110 #
b11100111101010100011101100111100 $
b10111 4
15
b10 9
b10111110000101110100011011000001 :
1=
1K
b11011001111010001011100100111110 Q
b11100111101010100011101100111100 R
b10111 b
1c
b10 g
b10111110000101110100011011000001 h
1k
1y
b10011110000000000000000000000000 }
b01100001111111111111111111111111 !"
b00100110000101110100011011000001 ""
b10011110000000000000000000000000 #"
b00100110000101110100011011000001 $"
b10111110000101110100011011000001 '"
b11011001111010001011100100111110 )"
b10111 0"
b11100111101010100011101100111100 1"
12"
b10011110000000000000000000000000 3"
b00100110000101110100011011000001 7"
b10011110000000000000000000000000 8"
19"
b10 :"
b10111110000101110100011011000001 ;"
1>"
b10011110000000000000000000000000 B"
b01100001111111111111111111111111 C"
b10011110000000000000000000000000 E"
b11011001111010001011100100111110 F"
b00100110000101110100011011000001 G"
b00100110000101110100011011000001 I"
b11011001111010001011100100111110 J"
b10111110000101110100011011000001 K"
b11011001111010001011100100111110 M"
#28000000
0K
0y
#32000000
b01111110000000111010001110100110 #
b00011100111010100000101010010011 $
b00101 4
05
18
b01 9
b10000001010000000101000001000000 :
0;
1=
1K
b01111110000000111010001110100110 Q
b00011100111010100000101010010011 R
b00101 b
0c
1f
b01 g
b10000001010000000101000001000000 h
0i
1k
1y
b10011101010000010101001001100000 }
b01100010101111101010110110011111 !"
b10000001111111000101110001011001 ""
b10011101010000010101001001100000 #"
b10000001111111000101110001011001 $"
0%"
b10000001010000000101000001000000 '"
b01111110000000111010001110100110 )"
b00101 0"
b00011100111010100000101010010011 1"
02"
b10011101010000010101001001100000 3"
04"
b10000001111111000101110001011001 7"
b10011101010000010101001001100000 8"
09"
b01 :"
b10000001010000000101000001000000 ;"
1>"
b10011101010000010101001001100000 B"
b01100010101111101010110110011111 C"
b10011101010000010101001001100000 E"
b01111110000000111010001110100110 F"
b10000001111111000101110001011001 G"
b10000001111111000101110001011001 I"
b01111110000000111010001110100110 J"
b10000001010000000101000001000000 K"
b01111110000000111010001110100110 M"
#36000000
0K
0y
#40000000
b01110100100000011011001010110101 #
b10010110101001001001110010100000 $
b00111 4
08
b00000010010011100100000000000000 :
1;
0=
1K
b01110100100000011011001010110101 Q
b10010110101001001001110010100000 R
b00111 b
0f
b00000010010011100100000000000000 h
1i
0k
1y
b01010010010011100101000000000000 }
b10101101101100011010111111111111 !"
b10001011011111100100110101001010 ""
b01010010010011100101000000000000 #"
b10001011011111100100110101001010 $"
1%"
b00000010010011100100000000000000 '"
b01110100100000011011001010110101 )"
b00111 0"
b10010110101001001001110010100000 1"
b01010010010011100101000000000000 3"
14"
b10001011011111100100110101001010 7"
b01010010010011100101000000000000 8"
b00000010010011100100000000000000 ;"
0>"
b01010010010011100101000000000000 B"
b10101101101100011010111111111111 C"
b01010010010011100101000000000000 E"
b01110100100000011011001010110101 F"
b10001011011111100100110101001010 G"
b10001011011111100100110101001010 I"
b01110100100000011011001010110101 J"
b00000010010011100100000000000000 K"
b01110100100000011011001010110101 M"
#44000000
0K
0y
#48000000
b11111000110110110110000011111001 #
b00001100101110000101000111011000 $
b11011 4
b00 9
b11000111001001001001111100000110 :
0;
1=
1K
b11111000110110110110000011111001 Q
b00001100101110000101000111011000 R
b11011 b
b00 g
b11000111001001001001111100000110 h
0i
1k
1y
b11000000000000000000000000000000 }
b00111111111111111111111111111111 !"
b00000111001001001001111100000110 ""
b11000000000000000000000000000000 #"
b00000111001001001001111100000110 $"
0%"
b11000111001001001001111100000110 '"
b11111000110110110110000011111001 )"
b11011 0"
b00001100101110000101000111011000 1"
b11000000000000000000000000000000 3"
04"
b00000111001001001001111100000110 7"
b11000000000000000000000000000000 8"
b00 :"
b11000111001001001001111100000110 ;"
1>"
b11000000000000000000000000000000 B"
b00111111111111111111111111111111 C"
b11000000000000000000000000000000 E"
b11111000110110110110000011111001 F"
b00000111001001001001111100000110 G"
b00000111001001001001111100000110 I"
b11111000110110110110000011111001 J"
b11000111001001001001111100000110 K"
b11111000110110110110000011111001 M"
#52000000
0K
0y
#56000000
b00101001001001001010001111011100 #
b10111101001011001111101000000101 $
b10110 4
18
b01011000000110110101110000100011 :
1;
1<
0=
1K
b00101001001001001010001111011100 Q
b10111101001011001111101000000101 R
b10110 b
1f
b01011000000110110101110000100011 h
1i
1j
0k
1y
b10000001010000000000000000000000 }
b01111110101111111111111111111111 !"
b11010110110110110101110000100011 ""
b10000001010000000000000000000000 #"
b11010110110110110101110000100011 $"
1%"
1&"
b01011000000110110101110000100011 '"
b00101001001001001010001111011100 )"
b10110 0"
b10111101001011001111101000000101 1"
b10000001010000000000000000000000 3"
14"
b11010110110110110101110000100011 7"
b10000001010000000000000000000000 8"
b01011000000110110101110000100011 ;"
1<"
0>"
1?"
b10000001010000000000000000000000 B"
b01111110101111111111111111111111 C"
b10000001010000000000000000000000 E"
b00101001001001001010001111011100 F"
b11010110110110110101110000100011 G"
b11010110110110110101110000100011 I"
b00101001001001001010001111011100 J"
b01011000000110110101110000100011 K"
b00101001001001001010001111011100 M"
#60000000
0K
0y
#64000000
b11001010101010101110110110110001 #
b00100000000110011101101110110001 $
b10001 4
15
b10 9
b10110111011101110001001001001110 :
1=
1K
b11001010101010101110110110110001 Q
b00100000000110011101101110110001 R
b10001 b
1c
b10 g
b10110111011101110001001001001110 h
1k
1y
b10110111011000100000000000000000 }
b01001000100111011111111111111111 !"
b00110101010101010001001001001110 ""
b10110111011000100000000000000000 #"
b00110101010101010001001001001110 $"
0%"
b10110111011101110001001001001110 '"
b11001010101010101110110110110001 )"
b10001 0"
b00100000000110011101101110110001 1"
12"
b10110111011000100000000000000000 3"
04"
b00110101010101010001001001001110 7"
b10110111011000100000000000000000 8"
19"
b10 :"
b10110111011101110001001001001110 ;"
1>"
b10110111011000100000000000000000 B"
b01001000100111011111111111111111 C"
b10110111011000100000000000000000 E"
b11001010101010101110110110110001 F"
b00110101010101010001001001001110 G"
b00110101010101010001001001001110 I"
b11001010101010101110110110110001 J"
b10110111011101110001001001001110 K"
b11001010101010101110110110110001 M"
#68000000
0K
0y
#72000000
b10101000111101010101101001001000 #
b00101001110100000111111111011110 $
b10101 4
08
b11111111110010101010010110110111 :
0;
1K
b10101000111101010101101001001000 Q
b00101001110100000111111111011110 R
b10101 b
0f
b11111111110010101010010110110111 h
0i
1y
b11111011110000000000000000000000 }
b00000100001111111111111111111111 !"
b01010111000010101010010110110111 ""
b11111011110000000000000000000000 #"
b01010111000010101010010110110111 $"
b11111111110010101010010110110111 '"
b10101000111101010101101001001000 )"
b10101 0"
b00101001110100000111111111011110 1"
b11111011110000000000000000000000 3"
b01010111000010101010010110110111 7"
b11111011110000000000000000000000 8"
b11111111110010101010010110110111 ;"
b11111011110000000000000000000000 B"
b00000100001111111111111111111111 C"
b11111011110000000000000000000000 E"
b10101000111101010101101001001000 F"
b01010111000010101010010110110111 G"
b01010111000010101010010110110111 I"
b10101000111101010101101001001000 J"
b11111111110010101010010110110111 K"
b10101000111101010101101001001000 M"
#76000000
0K
0y
#80000000
b10101001011110000001001111001100 #
b11100011111001011001110101000010 $
b10001 4
05
18
b01111110100001111110110000110011 :
1;
0=
1K
b10101001011110000001001111001100 Q
b11100011111001011001110101000010 R
b10001 b
0c
1f
b01111110100001111110110000110011 h
1i
0k
1y
b00111010100001000000000000000000 }
b11000101011110111111111111111111 !"
b01010110100001111110110000110011 ""
b00111010100001000000000000000000 #"
b01010110100001111110110000110011 $"
1%"
b01111110100001111110110000110011 '"
b10101001011110000001001111001100 )"
b10001 0"
b11100011111001011001110101000010 1"
02"
b00111010100001000000000000000000 3"
14"
b01010110100001111110110000110011 7"
b00111010100001000000000000000000 8"
09"
b01111110100001111110110000110011 ;"
0>"
b00111010100001000000000000000000 B"
b11000101011110111111111111111111 C"
b00111010100001000000000000000000 E"
b10101001011110000001001111001100 F"
b01010110100001111110110000110011 G"
b01010110100001111110110000110011 I"
b10101001011110000001001111001100 J"
b01111110100001111110110000110011 K"
b10101001011110000001001111001100 M"
#84000000
0K
0y
#88000000
b10000100100010010111100000011110 #
b01010000001101100000000111010011 $
b10110 4
08
b01111111111101101000011111100001 :
0;
1K
b10000100100010010111100000011110 Q
b01010000001101100000000111010011 R
b10110 b
0f
b01111111111101101000011111100001 h
0i
1y
b01110100110000000000000000000000 }
b10001011001111111111111111111111 !"
b01111011011101101000011111100001 ""
b01110100110000000000000000000000 #"
b01111011011101101000011111100001 $"
0%"
b01111111111101101000011111100001 '"
b10000100100010010111100000011110 )"
b10110 0"
b01010000001101100000000111010011 1"
b01110100110000000000000000000000 3"
04"
b01111011011101101000011111100001 7"
b01110100110000000000000000000000 8"
b01111111111101101000011111100001 ;"
b01110100110000000000000000000000 B"
b10001011001111111111111111111111 C"
b01110100110000000000000000000000 E"
b10000100100010010111100000011110 F"
b01111011011101101000011111100001 G"
b01111011011101101000011111100001 I"
b10000100100010010111100000011110 J"
b01111111111101101000011111100001 K"
b10000100100010010111100000011110 M"
#92000000
0K
0y
#96000000
b00010010010001111110101100000011 #
b10011001001010001100111111010110 $
b00111 4
b01 9
b10000100001000000000000000000000 :
1;
1=
1K
b00010010010001111110101100000011 Q
b10011001001010001100111111010110 R
b00111 b
b01 g
b10000100001000000000000000000000 h
1i
1k
1y
b10010100011001111110101100000000 }
b01101011100110000001010011111111 !"
b11101101101110000001010011111100 ""
b10010100011001111110101100000000 #"
b11101101101110000001010011111100 $"
1%"
b10000100001000000000000000000000 '"
b00010010010001111110101100000011 )"
b00111 0"
b10011001001010001100111111010110 1"
b10010100011001111110101100000000 3"
14"
b11101101101110000001010011111100 7"
b10010100011001111110101100000000 8"
b01 :"
b10000100001000000000000000000000 ;"
1>"
b10010100011001111110101100000000 B"
b01101011100110000001010011111111 C"
b10010100011001111110101100000000 E"
b00010010010001111110101100000011 F"
b11101101101110000001010011111100 G"
b11101101101110000001010011111100 I"
b00010010010001111110101100000011 J"
b10000100001000000000000000000000 K"
b00010010010001111110101100000011 M"
#100000000
0K
0y
#104000000
b00000111000010001101101111011101 #
b00100001111100000100011000101101 $
b10011 4
15
b10 9
b11111001111111110010010000100010 :
0;
1K
b00000111000010001101101111011101 Q
b00100001111100000100011000101101 R
b10011 b
1c
b10 g
b11111001111111110010010000100010 h
0i
1y
b00110001011010000000000000000000 }
b11001110100101111111111111111111 !"
b11111000111101110010010000100010 ""
b00110001011010000000000000000000 #"
b11111000111101110010010000100010 $"
0%"
b11111001111111110010010000100010 '"
b00000111000010001101101111011101 )"
b10011 0"
b00100001111100000100011000101101 1"
12"
b00110001011010000000000000000000 3"
04"
b11111000111101110010010000100010 7"
b00110001011010000000000000000000 8"
19"
b10 :"
b11111001111111110010010000100010 ;"
b00110001011010000000000000000000 B"
b11001110100101111111111111111111 C"
b00110001011010000000000000000000 E"
b00000111000010001101101111011101 F"
b11111000111101110010010000100010 G"
b11111000111101110010010000100010 I"
b00000111000010001101101111011101 J"
b11111001111111110010010000100010 K"
b00000111000010001101101111011101 M"
#108000000
0K
0y
#112000000
b01000110000010100011110111001011 #
b11000011000000111001100001001111 $
b10100 4
05
b11 9
b00111101000001011100001000110100 :
1;
0=
1K
b01000110000010100011110111001011 Q
b11000011000000111001100001001111 R
b10100 b
0c
b11 g
b00111101000001011100001000110100 h
1i
0k
1y
b10000100111100000000000000000000 }
b01111011000011111111111111111111 !"
b10111001111101011100001000110100 ""
b10000100111100000000000000000000 #"
b10111001111101011100001000110100 $"
1%"
b00111101000001011100001000110100 '"
b01000110000010100011110111001011 )"
b10100 0"
b11000011000000111001100001001111 1"
02"
b10000100111100000000000000000000 3"
14"
b10111001111101011100001000110100 7"
b10000100111100000000000000000000 8"
09"
b11 :"
b00111101000001011100001000110100 ;"
0>"
b10000100111100000000000000000000 B"
b01111011000011111111111111111111 C"
b10000100111100000000000000000000 E"
b01000110000010100011110111001011 F"
b10111001111101011100001000110100 G"
b10111001111101011100001000110100 I"
b01000110000010100011110111001011 J"
b00111101000001011100001000110100 K"
b01000110000010100011110111001011 M"
#116000000
0K
0y
#120000000
b00101101100100000011000100101100 #
b00010010110100010111000001011010 $
b11010 4
b10 9
b11111010011011111100111011010011 :
0;
1=
1K
b00101101100100000011000100101100 Q
b00010010110100010111000001011010 R
b11010 b
b10 g
b11111010011011111100111011010011 h
0i
1k
1y
b01101000000000000000000000000000 }
b10010111111111111111111111111111 !"
b11010010011011111100111011010011 ""
b01101000000000000000000000000000 #"
b11010010011011111100111011010011 $"
0%"
b11111010011011111100111011010011 '"
b00101101100100000011000100101100 )"
b11010 0"
b00010010110100010111000001011010 1"
b01101000000000000000000000000000 3"
04"
b11010010011011111100111011010011 7"
b01101000000000000000000000000000 8"
b10 :"
b11111010011011111100111011010011 ;"
1>"
b01101000000000000000000000000000 B"
b10010111111111111111111111111111 C"
b01101000000000000000000000000000 E"
b00101101100100000011000100101100 F"
b11010010011011111100111011010011 G"
b11010010011011111100111011010011 I"
b00101101100100000011000100101100 J"
b11111010011011111100111011010011 K"
b00101101100100000011000100101100 M"
#124000000
0K
0y
#128000000
b10001011011000111001011100101100 #
b10110001110001011000011100111100 $
b00011 4
18
b11111110101111000111100111110011 :
1;
1K
b10001011011000111001011100101100 Q
b10110001110001011000011100111100 R
b00011 b
1f
b11111110101111000111100111110011 h
1i
1y
b10001110001011000011100111100000 }
b01110001110100111100011000011111 !"
b01110100100111000110100011010011 ""
b10001110001011000011100111100000 #"
b01110100100111000110100011010011 $"
1%"
b11111110101111000111100111110011 '"
b10001011011000111001011100101100 )"
b00011 0"
b10110001110001011000011100111100 1"
b10001110001011000011100111100000 3"
14"
b01110100100111000110100011010011 7"
b10001110001011000011100111100000 8"
b11111110101111000111100111110011 ;"
b10001110001011000011100111100000 B"
b01110001110100111100011000011111 C"
b10001110001011000011100111100000 E"
b10001011011000111001011100101100 F"
b01110100100111000110100011010011 G"
b01110100100111000110100011010011 I"
b10001011011000111001011100101100 J"
b11111110101111000111100111110011 K"
b10001011011000111001011100101100 M"
#132000000
0K
0y
#136000000
b01011010000101110011110011110011 #
b00100001101111010101111011011111 $
b11111 4
15
b01 9
b10000000000000000000000000000000 :
1=
1K
b01011010000101110011110011110011 Q
b00100001101111010101111011011111 R
b11111 b
1c
b01 g
b10000000000000000000000000000000 h
1k
1y
b10000000000000000000000000000000 }
b01111111111111111111111111111111 !"
b10100101111010001100001100001100 ""
b10000000000000000000000000000000 #"
b10100101111010001100001100001100 $"
0%"
b10000000000000000000000000000000 '"
b01011010000101110011110011110011 )"
b11111 0"
b00100001101111010101111011011111 1"
12"
b10000000000000000000000000000000 3"
04"
b10100101111010001100001100001100 7"
b10000000000000000000000000000000 8"
19"
b01 :"
b10000000000000000000000000000000 ;"
1>"
b10000000000000000000000000000000 B"
b01111111111111111111111111111111 C"
b10000000000000000000000000000000 E"
b01011010000101110011110011110011 F"
b10100101111010001100001100001100 G"
b10100101111010001100001100001100 I"
b01011010000101110011110011110011 J"
b10000000000000000000000000000000 K"
b01011010000101110011110011110011 M"
#140000000
0K
0y
#144000000
b01010101110010110101011000101100 #
b10011100000011001010001100011010 $
b11010 4
b11 9
b11000010001101001010100111010011 :
1K
b01010101110010110101011000101100 Q
b10011100000011001010001100011010 R
b11010 b
b11 g
b11000010001101001010100111010011 h
1y
b01101000000000000000000000000000 }
b10010111111111111111111111111111 !"
b10101010001101001010100111010011 ""
b01101000000000000000000000000000 #"
b10101010001101001010100111010011 $"
1%"
b11000010001101001010100111010011 '"
b01010101110010110101011000101100 )"
b11010 0"
b10011100000011001010001100011010 1"
b01101000000000000000000000000000 3"
14"
b10101010001101001010100111010011 7"
b01101000000000000000000000000000 8"
b11 :"
b11000010001101001010100111010011 ;"
b01101000000000000000000000000000 B"
b10010111111111111111111111111111 C"
b01101000000000000000000000000000 E"
b01010101110010110101011000101100 F"
b10101010001101001010100111010011 G"
b10101010001101001010100111010011 I"
b01010101110010110101011000101100 J"
b11000010001101001010100111010011 K"
b01010101110010110101011000101100 M"
#148000000
0K
0y
#152000000
b00101000000111001010111101100001 #
b11000011100001110010000011100000 $
b01110 4
05
08
b00 9
b10100000000110110101000010011110 :
1=
1K
b00101000000111001010111101100001 Q
b11000011100001110010000011100000 R
b01110 b
0c
0f
b00 g
b10100000000110110101000010011110 h
1k
1y
b11001000001110000000000000000000 }
b00110111110001111111111111111111 !"
b11010111111000110101000010011110 ""
b11001000001110000000000000000000 #"
b11010111111000110101000010011110 $"
b10100000000110110101000010011110 '"
b00101000000111001010111101100001 )"
b01110 0"
b11000011100001110010000011100000 1"
02"
b11001000001110000000000000000000 3"
b11010111111000110101000010011110 7"
b11001000001110000000000000000000 8"
09"
b00 :"
b10100000000110110101000010011110 ;"
1>"
b11001000001110000000000000000000 B"
b00110111110001111111111111111111 C"
b11001000001110000000000000000000 E"
b00101000000111001010111101100001 F"
b11010111111000110101000010011110 G"
b11010111111000110101000010011110 I"
b00101000000111001010111101100001 J"
b10100000000110110101000010011110 K"
b00101000000111001010111101100001 M"
#156000000
0K
0y
#160000000
b11101101001111001111011110101010 #
b01000100001110101100010000010011 $
b00001 4
15
b10011011001110001001000001111011 :
0;
0<
1K
b11101101001111001111011110101010 Q
b01000100001110101100010000010011 R
b00001 b
1c
b10011011001110001001000001111011 h
0i
0j
1y
b10001000011101011000100000100110 }
b01110111100010100111011111011001 !"
b00010010110000110000100001010101 ""
b10001000011101011000100000100110 #"
b00010010110000110000100001010101 $"
0%"
0&"
b10011011001110001001000001111011 '"
b11101101001111001111011110101010 )"
b00001 0"
b01000100001110101100010000010011 1"
12"
b10001000011101011000100000100110 3"
04"
b00010010110000110000100001010101 7"
b10001000011101011000100000100110 8"
19"
b10011011001110001001000001111011 ;"
0<"
0?"
b10001000011101011000100000100110 B"
b01110111100010100111011111011001 C"
b10001000011101011000100000100110 E"
b11101101001111001111011110101010 F"
b00010010110000110000100001010101 G"
b00010010110000110000100001010101 I"
b11101101001111001111011110101010 J"
b10011011001110001001000001111011 K"
b11101101001111001111011110101010 M"
#164000000
0K
0y
